Homework6
…
}

Test the API query function

Test 1: Using defaults for the query function

news_info <- query_news_api()

[1] "Query URL: https://newsapi.org/v2/everything?q=health&from=2024-10-14&sortBy=popularity&apiKey=96a47f770685492faaf437063d733d14"

Result of query 1 printing as tibble so it looks nice

as_tibble(news_info)

# A tibble: 100 × 8
   source$id $name author title description url   urlToImage publishedAt content
   <chr>     <chr> <chr>  <chr> <chr>       <chr> <chr>      <chr>       <chr>  
 1 wired     Wired Krist… 7 Be… "Our write… http… https://m… 2024-10-14… "No on…
 2 <NA>      BBC … <NA>   Floo… "The flood… http… https://i… 2024-10-14… "Phoen…
 3 <NA>      CNET  Krist… Lymp… "We spoke … http… https://w… 2024-10-14… "Lymph…
 4 <NA>      CNET  Amand… Tire… "Waking up… http… https://w… 2024-10-14… "Getti…
 5 <NA>      CNET  Nelso… 7 Ea… "Revive yo… http… https://w… 2024-10-14… "Andro…
 6 business… Busi… insid… Appl… "AirPods 4… http… https://i… 2024-10-14… "When …
 7 <NA>      NPR   Allis… Are … "With only… http… https://n… 2024-10-14… "It ca…
 8 <NA>      NPR   Deepa… In o… "Polls sho… http… https://n… 2024-10-14… "Vice …
 9 <NA>      NPR   Ximen… Nati… "Both Repu… http… https://n… 2024-10-14… "PHOEN…
10 <NA>      NPR   NPR    Augu… "A 10-pers… http… https://m… 2024-10-14… "From:…
# ℹ 90 more rows
…
