Homework6
…
[1] "Query URL: https://newsapi.org/v2/everything?q=health&from=2024-10-15&page=1&sortBy=popularity&apiKey=96a47f770685492faaf437063d733d14"
[1] "Query URL: https://newsapi.org/v2/everything?q=health&from=2024-10-15&page=2&sortBy=popularity&apiKey=96a47f770685492faaf437063d733d14"
[1] "Status code: 200"
[1] "Query URL: https://newsapi.org/v2/everything?q=health&from=2024-10-15&page=3&sortBy=popularity&apiKey=96a47f770685492faaf437063d733d14"
[1] "Status code: 200"
[1] "Query URL: https://newsapi.org/v2/everything?q=health&from=2024-10-15&page=4&sortBy=popularity&apiKey=96a47f770685492faaf437063d733d14"
[1] "Status code: 200"
[1] "Query URL: https://newsapi.org/v2/everything?q=health&from=2024-10-15&page=5&sortBy=popularity&apiKey=96a47f770685492faaf437063d733d14"
[1] "Status code: 200"

Result of query 1

as_tibble(health_news)

# A tibble: 500 × 8
   source$id $name author title description url   urlToImage publishedAt content
   <chr>     <chr> <chr>  <chr> <chr>       <chr> <chr>      <chr>       <chr>  
 1 <NA>      Gizm… Adam … X-Ra… Some denti… http… https://g… 2024-10-15… "If yo…
 2 <NA>      BBC … <NA>   NHS … The health… http… https://i… 2024-10-15… "The w…
 3 <NA>      BBC … <NA>   Why … Ministers … http… https://i… 2024-10-15… "Sir K…
 4 <NA>      BBC … <NA>   Poli… The regula… http… https://i… 2024-10-15… "The H…
 5 <NA>      BBC … <NA>   Fami… Support se… http… https://i… 2024-10-15… "Hundr…
 6 <NA>      BBC … <NA>   Auti… Maisie's f… http… https://i… 2024-10-15… "Maisi…
 7 <NA>      BBC … <NA>   This… Elliot wan… http… https://i… 2024-10-15… "Disab…
 8 <NA>      BBC … <NA>   Jobl… The health… http… https://i… 2024-10-15… "Unemp…
 9 <NA>      BBC … <NA>   Dad … A father w… http… https://i… 2024-10-15… "The f…
10 <NA>      Andr… sharm… How … The Oura R… http… https://c… 2024-10-15… "How l…
# ℹ 490 more rows

Note: printed as a tibble so it looks nice

Summary for the name of the source (one-way contingency table)

health_news |> 
  pull(source) |>
  group_by(name) |>
  drop_na(name) |>
  summarize(count = n())

# A tibble: 177 × 2
   name                count
   <chr>               <int>
 1 120.136                 1
 2 9to5Mac                 1
 3 9to5google.com          4
 4 ABC News                3
 5 ABC News (AU)          12
 6 AdExchanger             1
 7 Advocate.com            4
 8 Al Jazeera English      6
 9 Amazon.com              1
10 Americanthinker.com     2
# ℹ 167 more rows
…
